Fernanda;Almeida;fernanda.almeida@ufabc.edu.br;Universidade Federal do ABC;Brazil;1;Brazil;https://orcid.org/0000-0003-3086-454X
Cecilia;Avila;cecilia.avilag@konradlorenz.edu.co;Fundación Universitaria Konrad Lorenz;Colombia;1;Colombia;https://orcid.org/0000-0002-2384-0518
Joseph Bamidele;Awotunde;awotunde.jb@unilorin.edu.ng;University of Ilorin;Nigeria;1;Nigeria;https://orcid.org/0000-0002-1020-4432
Jorge;Bacca-Acosta;jorge.bacca@konradlorenz.edu.co;Fundacion Universitaria Konrad Lorenz;Colombia;1;Colombia;https://orcid.org/0000-0003-0381-6972
Alejandra;Baena;alejandra.baena@uan.edu.co;Universidad Antonio Nariño;Colombia;1;Colombia;https://orcid.org/0000-0002-2216-6816
Carlos;Balsa;balsa@ipb.pt;Instituto Politécnico de Bragança;Portugal;1;Portugal;https://orcid.org/0000-0003-2431-8665
Simone;Belli;sbelli@ucm.es;Universidad Complutense de Madrid;Spain;1;Spain;https://orcid.org/0000-0001-8934-7569
Hüseyin;Bicen;huseyin.bicen@neu.edu.tr;Yakin Dogu Üniversitesi;Cyprus;1;Cyprus;https://orcid.org/0000-0002-9172-9790
Alexander;Bock;alexander.bock@uni-due.de;Universität Duisburg Essen;Germany;1;Germany;
Paola;Britos;pbritos@unrn.edu.ar;Universidad Nacional de Río Negro;Argentina;1;Argentina;https://orcid.org/0000-0002-8846-4744
Robert;Buchmann;robert.buchmann@econ.ubbcluj.ro;Universitatea Babes-Bolyai;Romania;1;Romania;
Raymundo;Buenrostro;raymundo@ucol.mx;Universidad de Colima;Mexico;1;Mexico;https://orcid.org/0000-0003-1449-1982
Patricia;Cano-Olivos;patricia.cano@upaep.mx;Universidad Popular Autónoma del Estado de Puebla;Mexico;1;Mexico;https://orcid.org/0000-0003-1754-6619
Carlos;Casanova;casanovac@frcu.utn.edu.ar;Universidad Tecnológica Nacional;Argentina;1;Argentina;
Jaime;Chavarriaga;jaime.chavarriaga@gmail.com;Universidad de los Andes;Colombia;1;Colombia;https://orcid.org/0000-0002-8372-667X
Victor;Darriba;darriba@uvigo.es;Universidade de Vigo;Spain;1;Spain;https://orcid.org/my-orcid?orcid=0000-0001-5566-1699
Cesar;Diaz;cesardiaz13@gmail.com;OCOX AI;Colombia;1;Colombia;https://orcid.org/0000-0002-9132-2747
Silvia;Fajardo-Flores;medusa@ucol.mx;Universidad de Colima;Mexico;1;Mexico;https://orcid.org/0000-0002-4332-4377
Mauri;Ferrandin;maurisones@gmail.com;Universidade Federal de Santa Catarina;Brazil;1;Brazil;https://orcid.org/0000-0002-4248-1207
Hector;Florez;haflorezf@udistrital.edu.co;Universidad Distrital Francisco José de Caldas;Colombia;1;Colombia;https://orcid.org/0000-0002-5339-4459
Ixent;Galpin;ixent.galpin@utadeo.edu.co;Universidad de Bogotá Jorge Tadeo Lozano;Colombia;1;Colombia;https://orcid.org/0000-0001-7020-6328
Raphael;Gomes;raphael.gomes@ifg.edu.br;Instituto Federal de Goiás;Brazil;1;Brazil;https://orcid.org/0000-0002-6036-7678
Daniel;Görlich;Daniel.Goerlich@srh.de;SRH Hochschule Heidelberg;Germany;1;Germany;https://orcid.org/0000-0002-4275-5466
Jānis;Grabis;grabis@rtu.lv;Rīgas Tehniskā Universitāte;Latvia;1;Latvia;https://orcid.org/0000-0003-2196-0214
Christian;Grévisse;christian.grevisse@uni.lu;Université du Luxembourg;Luxembourg;1;Luxembourg;https://orcid.org/0000-0002-9585-1160
Guillermo;Guarnizo;joguiguma@gmail.com;Universidad Santo Tomas;Colombia;1;Colombia;https://orcid.org/0000-0002-8401-4949
Alejandro;Hossian;alejandrohossian@yahoo.com.ar;Universidad Tecnológica Nacional;Argentina;1;Argentina;
Gilles;Hubert;hubert@irit.fr;Institut de Recherche en Informatique de Toulouse;France;1;France;https://orcid.org/0000-0003-3494-7561
Manfred;Jeusfeld;manfred.jeusfeld@acm.org;Högskolan i Skövde;Sweden;1;Sweden;
Rodrigo;Kato;rbkato@gmail.com;Universidade Federal de Minas Gerais;Brazil;1;Brazil;https://orcid.org/0000-0002-9046-1702
Marcelo;Leon;marceloleon11@hotmail.com;Universidad Ecotec;Ecuador;1;Ecuador;https://orcid.org/0000-0001-6303-6615
Keletso;Letsholo;kletsholo@hct.ac.ae;Higher Colleges of Technology;United Arab Emirates;1;United Arab Emirates;https://orcid.org/0000-0003-4355-7987
Isabel;Lopes;isalopes@ipb.pt;Instituto Politécnico de Bragança;Portugal;1;Portugal;https://orcid.org/0000-0002-5614-3516
Orlando;Lopez-Cruz;orlandolopez@unbosque.edu.co;Universidad El Bosque;Colombia;1;Colombia;https://orcid.org/0000-0003-3517-0168
Hugo;Peixoto;hpeixoto@di.uminho.pt;Universidade do Minho;Portugal;1;Portugal;https://orcid.org/0000-0003-3957-2121
Diego;Peluffo-Ordóñez;diego.peluffo@sdas-group.com;Mohammed VI Polytechnic University;Morocco;1;Morocco;https://orcid.org/0000-0002-9045-6997
Tamara;Piñero;tamara.pinero@hospitalitaliano.org.ar;Hospital Italiano de Buenos Aires;Argentina;1;Argentina;
Adam;Piórkowski;pioro@agh.edu.pl;AGH University of Science and Technology;Poland;1;Poland;
Florencia;Pollo-Cattaneo;flo.pollo@gmail.com ;Universidad Tecnológica Nacional;Argentina;1;Argentina;https://orcid.org/0000-0003-4197-3880
Filipe;Portela;cfp@dsi.uminho.pt;Universidade do Minho;Portugal;1;Portugal;https://orcid.org/0000-0003-2181-6837
Pablo;Pytel;ppytel@gmail.com;Universidad Tecnológica Nacional;Argentina;1;Argentina;https://orcid.org/0000-0002-3920-1710
Juan Camilo;Ramírez;juan.ramirez@uan.edu.co;Universidad Antonio Nariño;Colombia;1;Colombia;https://orcid.org/0000-0003-0045-4144
Vladimir;Robles-Bykbaev;vrobles@ups.edu.ec;Universidad Politécnica Salesiana;Ecuador;1;Ecuador;https://orcid.org/0000-0002-7645-8793
José;Rufino;rufino@ipb.pt;Instituto Politécnico de Bragança;Portugal;1;Portugal;http://orcid.org/0000-0002-1344-8264
Alber;Sanchez;alber.ipia@inpe.br;Instituto Nacional de Pesquisas Espaciais;Brazil;1;Brazil;https://orcid.org/0000-0001-7966-2880
Sweta;Singh;swetasinghm.sc@gmail.com;Savitribai Phule Pune University;India;1;India;https://orcid.org/0000-0001-9296-5149
German;Vega;german.vega@imag.fr;Centre National de la Recherche Scientifique;France;1;France;https://orcid.org/0000-0002-3652-8945
Manuel;Vilares;vilares@uvigo.es;Universidade de Vigo;Spain;1;Spain;https://orcid.org/0000-0003-3414-6211
Fernando;Yepes-Calderon;fernandoyepesc@gmail.com;Children's Hospital Los Angeles;United States;1;United States;https://orcid.org/0000-0001-9184-787X
