Fernanda;Almeida;fernanda.almeida@ufabc.edu.br;Universidade Federal do ABC;Brazil;1;Brazil;
Francisco;Alvarez;fjalvar@correo.uaa.mx;Universidad Autónoma de Aguascalientes;Mexico;1;Mexico;https://orcid.org/0000-0001-6608-046X
Hernan;Astudillo;hernan@inf.utfsm.cl;Universidad Técnica Federico Santa María;Chile;1;Chile;https://orcid.org/0000-0002-6487-5813
Cecilia;Avila;cecilia.avilag@konradlorenz.edu.co;Fundación Universitaria Konrad Lorenz;Colombia;1;Colombia;https://orcid.org/0000-0002-2384-0518
Jorge;Bacca;jorge.bacca@konradlorenz.edu.co;Fundacion Universitaria Konrad Lorenz;Colombia;1;Colombia;https://orcid.org/0000-0003-0381-6972
Carlos;Balsa;balsa@ipb.pt;Instituto Politécnico de Bragança;Portugal;1;Portugal;https://orcid.org/0000-0003-2431-8665
José;Barros;jbarros@uvigo.es;Universidade de Vigo;Spain;1;Spain;https://orcid.org/0000-0003-2046-2643
Xavier ;Besseron;xavier.besseron@uni.lu;Université du Luxembourg;Luxembourg;1;Luxembourg;https://orcid.org/0000-0002-7783-2185
Hüseyin;Bicen;huseyin.bicen@neu.edu.tr;Yakin Dogu Üniversitesi;Cyprus;1;Cyprus;https://orcid.org/0000-0002-9172-9790
Dominic;Bork;dominik.bork@univie.ac.at;Universität Wien;Austria;1;Austria;https://orcid.org/0000-0001-8259-2297
Raymundo;Buenrostro;raymundo@ucol.mx;Universidad de Colima;Mexico;1;Mexico;https://orcid.org/0000-0003-1449-1982
Patricia;Cano-Olivos;patricia.cano@upaep.mx;Universidad Popular Autónoma del Estado de Puebla;Mexico;1;Mexico;https://orcid.org/0000-0003-1754-6619
Ines;Casanovas;inescasanovas@gmail.com;Universidad Tecnológica Nacional Facultad Regional Buenos Aires;Argentina;1;Argentina;
Germán;Castañeda;germancasta01@fem.unicamp.br;Universidade Estadual de Campinas;Brazil;1;Brazil;
Elio;Castillo;castillo.eliorodrigo@gmail.com;Universidad Nacional de Misiones;Argentina;1;Argentina;
Jaime;Chavarriaga;jaime.chavarriaga@gmail.com;Universidad de los Andes;Colombia;1;Colombia;https://orcid.org/0000-0002-8372-667X
Erol;Chioasca;erol@exgence.com;University of Manchester Innovation Factory;United Kingdom;1;United Kingdom;
Robertas;Damasevicius;robertas.damasevicius@ktu.lt;Kauno Technologijos Universitetas;Lithuania;1;Lithuania;https://orcid.org/0000-0001-9990-1084
Victor;Darriba;darriba@uvigo.es;Universidade de Vigo;Spain;1;Spain;
Helio;de Oliveira;hmo@de.ufpe.br;Universidade Federal de Pernambuco;Brazil;1;Brazil;https://orcid.org/0000-0002-6843-0635
Luis;de-la-Fuente-Valentín;luis.delafuente@unir.net;Universidad Internacional de La Rioja;Spain;1;Spain;https://orcid.org/0000-0001-9727-315X
Cesar;Diaz;cesardiaz13@gmail.com;OCOX AI;Colombia;1;Colombia;https://orcid.org/0000-0002-9132-2747
Silvia;Fajardo;medusa@ucol.mx;Universidad de Colima;Mexico;1;Mexico;https://orcid.org/0000-0002-4332-4377
Mauri;Ferrandin;maurisones@gmail.com;Universidade Federal de Santa Catarina;Brazil;1;Brazil;https://orcid.org/0000-0002-4248-1207
Hector;Florez;haflorezf@udistrital.edu.co;Universidad Distrital Francisco José de Caldas;Colombia;1;Colombia;https://orcid.org/0000-0002-5339-4459
Ixent;Galpin;ixent@utadeo.edu.co;Universidad de Bogotá Jorge Tadeo Lozano;Colombia;1;Colombia;https://orcid.org/0000-0001-7020-6328
Olmer;Garcia;olmerg@gmail.com;Universidad de Bogotá Jorge Tadeo Lozano;Colombia;1;Colombia;https://orcid.org/0000-0002-6964-3034
Javad;Ghofrani;javad.ghofrani@gmail.com;Hochschule für Technik und Wirtschaft Dresden;Germany;1;Germany;https://orcid.org/0000-0002-9249-7434
Raphael;Gomes;raphael.gomes@ifg.edu.br;Instituto Federal de Goiás;Brazil;1;Brazil;https://orcid.org/0000-0002-6036-7678
Daniel;Görlich;Daniel.Goerlich@srh.de;SRH Hochschule Heidelberg;Germany;1;Germany;https://orcid.org/0000-0002-4275-5466
Jānis;Grabis;grabis@iti.rtu.lv;Rīgas Tehniskā Universitāte;Latvia;1;Latvia;https://orcid.org/0000-0003-2196-0214
Christian;Grévisse;christian.grevisse@uni.lu;Université du Luxembourg;Luxembourg;1;Luxembourg;https://orcid.org/0000-0002-9585-1160
Guillermo;Guarnizo;joguiguma@gmail.com;Universidad Santo Tomas;Colombia;1;Colombia;
Jens;Gulden;j.gulden@uu.nl;Universiteit Utrecht;Netherlands;1;Netherlands;https://orcid.org/0000-0003-4824-8569
Horacio;Hoyos;hacker.team@kinori.tech;Rolls-Royce;United Kingdom;1;United Kingdom;
Gilles;Hubert;hubert@irit.fr;Institut de Recherche en Informatique de Toulouse;France;1;France;https://orcid.org/0000-0003-3494-7561
Monika;Kaczmarek;monika.kaczmarek@uni-duisburg-essen.de;Universität Duisburg-Essen;Germany;1;Germany;https://orcid.org/0000-0002-1621-2775
Musonda;Kapatamoyo;mkapata@siue.edu;Southern Illinois University Edwardsville;United States;1;United States;
Rodrigo;Kato;rbkato@gmail.com;Universidade Federal de Minas Gerais;Brazil;1;Brazil;https://orcid.org/0000-0002-9046-1702
Dr;Kinshuk;kinshuk@ieee.org;University of North Texas;United States;1;United States;
Diana;Lancheros;dlancheros@hotmail.com;Universidad de la Salle;Colombia;1;Colombia;https://orcid.org/0000-0002-6355-4305
Robert;Laurini;roberto.laurini@gmail.com;Knowledge Systems Institute;United States;1;United States;https://orcid.org/0000-0003-0426-4030
Marcelo;Leon;marceloleon11@hotmail.com;Universidad Nacional de Loja;Ecuador;1;Ecuador;https://orcid.org/0000-0001-6303-6615
Keletso;Letsholo;kletsholo@hct.ac.ae;Higher Colleges of Technology;United Arab Emirates;1;United Arab Emirates;https://orcid.org/0000-0003-4355-7987
Tong;Li;litong@bjut.edu.cn;Beijing University of Technology;China;1;China;https://orcid.org/0000-0002-8881-0037
Isabel;Lopes;isalopes@ipb.pt;Instituto Politécnico de Bragança;Portugal;1;Portugal;https://orcid.org/0000-0002-5614-3516
Orlando;Lopez;orlandolopez@unbosque.edu.co;Universidad El Bosque;Colombia;1;Colombia;https://orcid.org/0000-0003-3517-0168
Jose;Martinez-Flores;joseluis.martinez01@upaep.mx;Universidad Popular Autónoma del Estado de Puebla;Mexico;1;Mexico;https://orcid.org/0000-0003-2986-469X
Rytis;Maskeliunas;rytis.maskeliunas@gmail.com;Kauno Technologijos Universitetas;Lithuania;1;Lithuania;https://orcid.org/0000-0002-2809-2213
Raul;Mazo;raulmazo@gmail.com;Université Paris 1 Panthéon-Sorbonne;France;1;France;https://orcid.org/0000-0003-0629-1542
Hernan;Merlino;hmerlino@gmail.com;Universidad Tecnológica Nacional Facultad Regional Buenos Aires;Argentina;1;Argentina;
Sergio;Minniti;sergio.minniti@unipd.it;Universita Degli Study di Padova;Italy;1;Italy;https://orcid.org/0000-0001-6358-4427
Sanjay;Misra;sanjay.misra@covenantuniversity.edu.ng;Covenant University;Nigeria;1;Nigeria;https://orcid.org/0000-0002-3556-9331
Ivan;Mura;mura_ivan@hotmail.it;Duke Kunshan Unievrsity;China;1;China;https://orcid.org/0000-0001-5549-0324
Jonathan;Oluratni;Jonathan.oluranti@covenantuniversity.edu.ng;Covenant University;Nigeria;1;Nigeria;
Hugo;Peixoto;hpeixoto@di.uminho.pt;Centro de Investigação Algoritmi, Universidade do Minho;Portugal;1;Portugal;https://orcid.org/0000-0003-3957-2121
Diego;Peluffo-Ordóñez;diego.peluffo@sdas-group.com;Universidad Yachay Tech;Ecuador;1;Ecuador;https://orcid.org/0000-0002-9045-6997
Yoann ;Pitarch;yoann.pitarch@irit.fr;Institut de Recherche en Informatique de Toulouse;France;1;France;
Florencia;Pollo-Cattaneo;flo.pollo@gmail.com ;Universidad Tecnológica Nacional Facultad Regional Buenos Aires;Argentina;1;Argentina;https://orcid.org/0000-0003-4197-3880
Filipe;Portela;cfp@dsi.uminho.pt;University of Minho;Portugal;1;Portugal;https://orcid.org/0000-0003-2181-6837
Juan;Posadas;jposadas@disca.upv.es;Universitat Politècnica de València;Spain;1;Spain;https://orcid.org/0000-0002-5017-8689
Pablo;Pytel;ppytel@gmail.com;Universidad Tecnológica Nacional Facultad Regional Buenos Aires;Argentina;1;Argentina;https://orcid.org/0000-0002-3920-1710
Luis;Rabelo;luis.rabelo@ucf.edu;University of Central Florida;United States;1;United States;
Francisco;Ribadas;fribadas@gmail.com;Universidade de Vigo;Spain;1;Spain;
Francklin;Rivas;francklin.rivas@inf.utfsm.cl;Universidad Técnica Federico Santa María;Chile;1;Chile;
Ben;Roelens;ben.roelens@ou.nl;Open Universiteit;Netherlands;1;Netherlands;https://orcid.org/0000-0002-2443-8678
José;Rufino;rufino@ipb.pt;Instituto Politécnico de Bragança;Portugal;1;Portugal;
Marcela;Ruiz;marcela.ruiz@zhaw.ch;Zürcher Hochschule für Angewandte Wissenschaften;Switzerland;1;Switzerland;https://orcid.org/0000-0002-0592-1779
Simona;Safarikova;simona.safarikova@upol.cz;Univerzita Palackého v Olomouci;Czech Republic;1;Czech Republic;
Camille;Salinesi;camille.salinesi@univ-paris1.fr;Université Paris 1 Panthéon-Sorbonne;France;1;France;https://orcid.org/0000-0002-1957-0519
Karina;Salvatierra;kariales@gmail.com;Universidad Nacional de Misiones;Argentina;1;Argentina;https://orcid.org/0000-0002-6634-4776
Christoph;Schütz;christoph.schuetz@jku.at;Johannes Kepler Universität Linz;Austria;1;Austria;https://orcid.org/0000-0002-3339-9690
Manik;Sharma;manik_sharma25@yahoo.com;DAV University;India;1;India;https://orcid.org/0000-0002-5942-134X
Sweta;Singh;swetasinghm.sc@gmail.com;Savitribai Phule Pune University;India;1;India;
Inna;Skarga-Bandurova;skarga_bandurova@ukr.net;East Ukrainian National University;Ukraine;1;Ukraine;https://orcid.org/0000-0003-3458-8730
Modestos;Stavrakis;modestos@aegean.gr;University of the Aegean;Greece;1;Greece;http://orcid.org/0000-0002-0694-6038
Cristian;Triana;ctrianai@unbosque.edu.co;Universidad El Bosque;Colombia;1;Colombia;
German;Vega;german.vega@imag.fr;Centre National de la Recherche Scientifique;France;1;France;https://orcid.org/0000-0002-3652-8945
Manuel;Vilares;vilares@uvigo.es;Universidade de Vigo;Spain;1;Spain;https://orcid.org/0000-0003-3414-6211
Fernando;Yepes-Calderon;fernandoyepesc@gmail.com;Children's Hospital Los Angeles;United States;1;United States;https://orcid.org/0000-0001-9184-787X
